%YAML 1.1
%TAG !u! tag:unity3d.com,2011:
--- !u!1001 &1188890219094966344
PrefabInstance:
  m_ObjectHideFlags: 0
  serializedVersion: 2
  m_Modification:
    serializedVersion: 3
    m_TransformParent: {fileID: 1791760946277989580}
    m_Modifications:
    - target: {fileID: 1715387847113870, guid: 1e0aafc0929495b4aaab2692dcec2574, type: 3}
      propertyPath: m_Name
      value: DustCalm
      objectReference: {fileID: 0}
    - target: {fileID: 4401431401273112, guid: 1e0aafc0929495b4aaab2692dcec2574, type: 3}
      propertyPath: m_RootOrder
      value: 0
      objectReference: {fileID: 0}
    - target: {fileID: 4401431401273112, guid: 1e0aafc0929495b4aaab2692dcec2574, type: 3}
      propertyPath: m_LocalPosition.x
      value: -0.00615
      objectReference: {fileID: 0}
    - target: {fileID: 4401431401273112, guid: 1e0aafc0929495b4aaab2692dcec2574, type: 3}
      propertyPath: m_LocalPosition.y
      value: 0.00264
      objectReference: {fileID: 0}
    - target: {fileID: 4401431401273112, guid: 1e0aafc0929495b4aaab2692dcec2574, type: 3}
      propertyPath: m_LocalPosition.z
      value: 0.02078
      objectReference: {fileID: 0}
    - target: {fileID: 4401431401273112, guid: 1e0aafc0929495b4aaab2692dcec2574, type: 3}
      propertyPath: m_LocalRotation.w
      value: 0.6545249
      objectReference: {fileID: 0}
    - target: {fileID: 4401431401273112, guid: 1e0aafc0929495b4aaab2692dcec2574, type: 3}
      propertyPath: m_LocalRotation.x
      value: -0.7492999
      objectReference: {fileID: 0}
    - target: {fileID: 4401431401273112, guid: 1e0aafc0929495b4aaab2692dcec2574, type: 3}
      propertyPath: m_LocalRotation.y
      value: -0.06626838
      objectReference: {fileID: 0}
    - target: {fileID: 4401431401273112, guid: 1e0aafc0929495b4aaab2692dcec2574, type: 3}
      propertyPath: m_LocalRotation.z
      value: -0.07586404
      objectReference: {fileID: 0}
    - target: {fileID: 4401431401273112, guid: 1e0aafc0929495b4aaab2692dcec2574, type: 3}
      propertyPath: m_LocalEulerAnglesHint.x
      value: -97.725
      objectReference: {fileID: 0}
    - target: {fileID: 4401431401273112, guid: 1e0aafc0929495b4aaab2692dcec2574, type: 3}
      propertyPath: m_LocalEulerAnglesHint.y
      value: -11.562988
      objectReference: {fileID: 0}
    - target: {fileID: 4401431401273112, guid: 1e0aafc0929495b4aaab2692dcec2574, type: 3}
      propertyPath: m_LocalEulerAnglesHint.z
      value: 0
      objectReference: {fileID: 0}
    m_RemovedComponents: []
    m_RemovedGameObjects: []
    m_AddedGameObjects: []
    m_AddedComponents: []
  m_SourcePrefab: {fileID: 100100000, guid: 1e0aafc0929495b4aaab2692dcec2574, type: 3}
--- !u!4 &1184563589151364944 stripped
Transform:
  m_CorrespondingSourceObject: {fileID: 4401431401273112, guid: 1e0aafc0929495b4aaab2692dcec2574, type: 3}
  m_PrefabInstance: {fileID: 1188890219094966344}
  m_PrefabAsset: {fileID: 0}
--- !u!1001 &2258313780598168359
PrefabInstance:
  m_ObjectHideFlags: 0
  serializedVersion: 2
  m_Modification:
    serializedVersion: 3
    m_TransformParent: {fileID: 0}
    m_Modifications:
    - target: {fileID: -8679921383154817045, guid: 91439e76043c3d446be176ca7d5a15af, type: 3}
      propertyPath: m_RootOrder
      value: 0
      objectReference: {fileID: 0}
    - target: {fileID: -8679921383154817045, guid: 91439e76043c3d446be176ca7d5a15af, type: 3}
      propertyPath: m_LocalPosition.x
      value: 0
      objectReference: {fileID: 0}
    - target: {fileID: -8679921383154817045, guid: 91439e76043c3d446be176ca7d5a15af, type: 3}
      propertyPath: m_LocalPosition.y
      value: 0
      objectReference: {fileID: 0}
    - target: {fileID: -8679921383154817045, guid: 91439e76043c3d446be176ca7d5a15af, type: 3}
      propertyPath: m_LocalPosition.z
      value: 0
      objectReference: {fileID: 0}
    - target: {fileID: -8679921383154817045, guid: 91439e76043c3d446be176ca7d5a15af, type: 3}
      propertyPath: m_LocalRotation.w
      value: 0.7071067
      objectReference: {fileID: 0}
    - target: {fileID: -8679921383154817045, guid: 91439e76043c3d446be176ca7d5a15af, type: 3}
      propertyPath: m_LocalRotation.x
      value: -0.7071068
      objectReference: {fileID: 0}
    - target: {fileID: -8679921383154817045, guid: 91439e76043c3d446be176ca7d5a15af, type: 3}
      propertyPath: m_LocalRotation.y
      value: 0
      objectReference: {fileID: 0}
    - target: {fileID: -8679921383154817045, guid: 91439e76043c3d446be176ca7d5a15af, type: 3}
      propertyPath: m_LocalRotation.z
      value: -0
      objectReference: {fileID: 0}
    - target: {fileID: -8679921383154817045, guid: 91439e76043c3d446be176ca7d5a15af, type: 3}
      propertyPath: m_LocalEulerAnglesHint.x
      value: 0
      objectReference: {fileID: 0}
    - target: {fileID: -8679921383154817045, guid: 91439e76043c3d446be176ca7d5a15af, type: 3}
      propertyPath: m_LocalEulerAnglesHint.y
      value: 0
      objectReference: {fileID: 0}
    - target: {fileID: -8679921383154817045, guid: 91439e76043c3d446be176ca7d5a15af, type: 3}
      propertyPath: m_LocalEulerAnglesHint.z
      value: 0
      objectReference: {fileID: 0}
    - target: {fileID: 919132149155446097, guid: 91439e76043c3d446be176ca7d5a15af, type: 3}
      propertyPath: m_Name
      value: prefab_Shroom_003_Deco
      objectReference: {fileID: 0}
    - target: {fileID: 919132149155446097, guid: 91439e76043c3d446be176ca7d5a15af, type: 3}
      propertyPath: m_StaticEditorFlags
      value: 2147483647
      objectReference: {fileID: 0}
    m_RemovedComponents: []
    m_RemovedGameObjects: []
    m_AddedGameObjects:
    - targetCorrespondingSourceObject: {fileID: -8679921383154817045, guid: 91439e76043c3d446be176ca7d5a15af, type: 3}
      insertIndex: -1
      addedObject: {fileID: 1184563589151364944}
    m_AddedComponents: []
  m_SourcePrefab: {fileID: 100100000, guid: 91439e76043c3d446be176ca7d5a15af, type: 3}
--- !u!4 &1791760946277989580 stripped
Transform:
  m_CorrespondingSourceObject: {fileID: -8679921383154817045, guid: 91439e76043c3d446be176ca7d5a15af, type: 3}
  m_PrefabInstance: {fileID: 2258313780598168359}
  m_PrefabAsset: {fileID: 0}
