%YAML 1.1
%TAG !u! tag:unity3d.com,2011:
--- !u!1001 &68009365865707272
PrefabInstance:
  m_ObjectHideFlags: 0
  serializedVersion: 2
  m_Modification:
    serializedVersion: 3
    m_TransformParent: {fileID: 0}
    m_Modifications:
    - target: {fileID: 85856663591110444, guid: 027423c9f7f1e2640866d4c29dd61ae6, type: 3}
      propertyPath: m_Name
      value: UICard_Buff_GoBigOrGoHome
      objectReference: {fileID: 0}
    - target: {fileID: 1368693283624992048, guid: 027423c9f7f1e2640866d4c29dd61ae6, type: 3}
      propertyPath: m_text
      value: "Increase \nprojectile size\n\nYour spells will be the biggest in the
        land!"
      objectReference: {fileID: 0}
    - target: {fileID: 1368693283624992048, guid: 027423c9f7f1e2640866d4c29dd61ae6, type: 3}
      propertyPath: m_fontColor.b
      value: 0.10205289
      objectReference: {fileID: 0}
    - target: {fileID: 1368693283624992048, guid: 027423c9f7f1e2640866d4c29dd61ae6, type: 3}
      propertyPath: m_fontColor.g
      value: 0.13677333
      objectReference: {fileID: 0}
    - target: {fileID: 1368693283624992048, guid: 027423c9f7f1e2640866d4c29dd61ae6, type: 3}
      propertyPath: m_fontColor.r
      value: 0.3773585
      objectReference: {fileID: 0}
    - target: {fileID: 1368693283624992048, guid: 027423c9f7f1e2640866d4c29dd61ae6, type: 3}
      propertyPath: m_fontColor32.rgba
      value: 4279903072
      objectReference: {fileID: 0}
    - target: {fileID: 2348236832770104320, guid: 027423c9f7f1e2640866d4c29dd61ae6, type: 3}
      propertyPath: m_SortingLayer
      value: 0
      objectReference: {fileID: 0}
    - target: {fileID: 2482922164078295009, guid: 027423c9f7f1e2640866d4c29dd61ae6, type: 3}
      propertyPath: m_AnchorMax.y
      value: 0
      objectReference: {fileID: 0}
    - target: {fileID: 2482922164078295009, guid: 027423c9f7f1e2640866d4c29dd61ae6, type: 3}
      propertyPath: m_AnchorMin.y
      value: 0
      objectReference: {fileID: 0}
    - target: {fileID: 2482922164078295009, guid: 027423c9f7f1e2640866d4c29dd61ae6, type: 3}
      propertyPath: m_SizeDelta.x
      value: 0
      objectReference: {fileID: 0}
    - target: {fileID: 2482922164078295009, guid: 027423c9f7f1e2640866d4c29dd61ae6, type: 3}
      propertyPath: m_AnchoredPosition.x
      value: 0
      objectReference: {fileID: 0}
    - target: {fileID: 2482922164078295009, guid: 027423c9f7f1e2640866d4c29dd61ae6, type: 3}
      propertyPath: m_AnchoredPosition.y
      value: 0
      objectReference: {fileID: 0}
    - target: {fileID: 3520580044352466341, guid: 027423c9f7f1e2640866d4c29dd61ae6, type: 3}
      propertyPath: spell
      value: 
      objectReference: {fileID: 11400000, guid: d2cafd4ebd0da904cb72eb48548ae13c, type: 2}
    - target: {fileID: 4579885266350885081, guid: 027423c9f7f1e2640866d4c29dd61ae6, type: 3}
      propertyPath: m_text
      value: Go Big or Go Home
      objectReference: {fileID: 0}
    - target: {fileID: 4579885266350885081, guid: 027423c9f7f1e2640866d4c29dd61ae6, type: 3}
      propertyPath: m_fontColor.b
      value: 0.101960786
      objectReference: {fileID: 0}
    - target: {fileID: 4579885266350885081, guid: 027423c9f7f1e2640866d4c29dd61ae6, type: 3}
      propertyPath: m_fontColor.g
      value: 0.13725491
      objectReference: {fileID: 0}
    - target: {fileID: 4579885266350885081, guid: 027423c9f7f1e2640866d4c29dd61ae6, type: 3}
      propertyPath: m_fontColor.r
      value: 0.3764706
      objectReference: {fileID: 0}
    - target: {fileID: 4579885266350885081, guid: 027423c9f7f1e2640866d4c29dd61ae6, type: 3}
      propertyPath: m_fontColor32.rgba
      value: 4279903072
      objectReference: {fileID: 0}
    - target: {fileID: 4621963235447766080, guid: 027423c9f7f1e2640866d4c29dd61ae6, type: 3}
      propertyPath: m_SortingLayer
      value: 0
      objectReference: {fileID: 0}
    - target: {fileID: 5216228814852213072, guid: 027423c9f7f1e2640866d4c29dd61ae6, type: 3}
      propertyPath: m_AnchorMax.y
      value: 0
      objectReference: {fileID: 0}
    - target: {fileID: 5216228814852213072, guid: 027423c9f7f1e2640866d4c29dd61ae6, type: 3}
      propertyPath: m_AnchorMin.y
      value: 0
      objectReference: {fileID: 0}
    - target: {fileID: 5216228814852213072, guid: 027423c9f7f1e2640866d4c29dd61ae6, type: 3}
      propertyPath: m_SizeDelta.x
      value: 0
      objectReference: {fileID: 0}
    - target: {fileID: 5216228814852213072, guid: 027423c9f7f1e2640866d4c29dd61ae6, type: 3}
      propertyPath: m_AnchoredPosition.x
      value: 0
      objectReference: {fileID: 0}
    - target: {fileID: 5216228814852213072, guid: 027423c9f7f1e2640866d4c29dd61ae6, type: 3}
      propertyPath: m_AnchoredPosition.y
      value: 0
      objectReference: {fileID: 0}
    - target: {fileID: 5497377022927056032, guid: 027423c9f7f1e2640866d4c29dd61ae6, type: 3}
      propertyPath: m_SortingLayer
      value: 0
      objectReference: {fileID: 0}
    - target: {fileID: 5968197219589060963, guid: 027423c9f7f1e2640866d4c29dd61ae6, type: 3}
      propertyPath: m_SortingLayer
      value: 0
      objectReference: {fileID: 0}
    - target: {fileID: 6018923206443607541, guid: 027423c9f7f1e2640866d4c29dd61ae6, type: 3}
      propertyPath: m_Color.b
      value: 1
      objectReference: {fileID: 0}
    - target: {fileID: 6018923206443607541, guid: 027423c9f7f1e2640866d4c29dd61ae6, type: 3}
      propertyPath: m_Color.g
      value: 1
      objectReference: {fileID: 0}
    - target: {fileID: 6018923206443607541, guid: 027423c9f7f1e2640866d4c29dd61ae6, type: 3}
      propertyPath: m_Color.r
      value: 1
      objectReference: {fileID: 0}
    - target: {fileID: 6443759766076805867, guid: 027423c9f7f1e2640866d4c29dd61ae6, type: 3}
      propertyPath: m_SortingLayer
      value: 0
      objectReference: {fileID: 0}
    - target: {fileID: 6620577713449678173, guid: 027423c9f7f1e2640866d4c29dd61ae6, type: 3}
      propertyPath: m_Pivot.x
      value: 0.5
      objectReference: {fileID: 0}
    - target: {fileID: 6620577713449678173, guid: 027423c9f7f1e2640866d4c29dd61ae6, type: 3}
      propertyPath: m_Pivot.y
      value: 1
      objectReference: {fileID: 0}
    - target: {fileID: 6620577713449678173, guid: 027423c9f7f1e2640866d4c29dd61ae6, type: 3}
      propertyPath: m_RootOrder
      value: -1
      objectReference: {fileID: 0}
    - target: {fileID: 6620577713449678173, guid: 027423c9f7f1e2640866d4c29dd61ae6, type: 3}
      propertyPath: m_AnchorMax.x
      value: 0.5
      objectReference: {fileID: 0}
    - target: {fileID: 6620577713449678173, guid: 027423c9f7f1e2640866d4c29dd61ae6, type: 3}
      propertyPath: m_AnchorMax.y
      value: 1
      objectReference: {fileID: 0}
    - target: {fileID: 6620577713449678173, guid: 027423c9f7f1e2640866d4c29dd61ae6, type: 3}
      propertyPath: m_AnchorMin.x
      value: 0.5
      objectReference: {fileID: 0}
    - target: {fileID: 6620577713449678173, guid: 027423c9f7f1e2640866d4c29dd61ae6, type: 3}
      propertyPath: m_AnchorMin.y
      value: 1
      objectReference: {fileID: 0}
    - target: {fileID: 6620577713449678173, guid: 027423c9f7f1e2640866d4c29dd61ae6, type: 3}
      propertyPath: m_SizeDelta.x
      value: 190
      objectReference: {fileID: 0}
    - target: {fileID: 6620577713449678173, guid: 027423c9f7f1e2640866d4c29dd61ae6, type: 3}
      propertyPath: m_SizeDelta.y
      value: 373
      objectReference: {fileID: 0}
    - target: {fileID: 6620577713449678173, guid: 027423c9f7f1e2640866d4c29dd61ae6, type: 3}
      propertyPath: m_LocalPosition.x
      value: 0
      objectReference: {fileID: 0}
    - target: {fileID: 6620577713449678173, guid: 027423c9f7f1e2640866d4c29dd61ae6, type: 3}
      propertyPath: m_LocalPosition.y
      value: 0
      objectReference: {fileID: 0}
    - target: {fileID: 6620577713449678173, guid: 027423c9f7f1e2640866d4c29dd61ae6, type: 3}
      propertyPath: m_LocalPosition.z
      value: 0
      objectReference: {fileID: 0}
    - target: {fileID: 6620577713449678173, guid: 027423c9f7f1e2640866d4c29dd61ae6, type: 3}
      propertyPath: m_LocalRotation.w
      value: 1
      objectReference: {fileID: 0}
    - target: {fileID: 6620577713449678173, guid: 027423c9f7f1e2640866d4c29dd61ae6, type: 3}
      propertyPath: m_LocalRotation.x
      value: -0
      objectReference: {fileID: 0}
    - target: {fileID: 6620577713449678173, guid: 027423c9f7f1e2640866d4c29dd61ae6, type: 3}
      propertyPath: m_LocalRotation.y
      value: -0
      objectReference: {fileID: 0}
    - target: {fileID: 6620577713449678173, guid: 027423c9f7f1e2640866d4c29dd61ae6, type: 3}
      propertyPath: m_LocalRotation.z
      value: -0
      objectReference: {fileID: 0}
    - target: {fileID: 6620577713449678173, guid: 027423c9f7f1e2640866d4c29dd61ae6, type: 3}
      propertyPath: m_AnchoredPosition.x
      value: 0
      objectReference: {fileID: 0}
    - target: {fileID: 6620577713449678173, guid: 027423c9f7f1e2640866d4c29dd61ae6, type: 3}
      propertyPath: m_AnchoredPosition.y
      value: 0
      objectReference: {fileID: 0}
    - target: {fileID: 6620577713449678173, guid: 027423c9f7f1e2640866d4c29dd61ae6, type: 3}
      propertyPath: m_LocalEulerAnglesHint.x
      value: 0
      objectReference: {fileID: 0}
    - target: {fileID: 6620577713449678173, guid: 027423c9f7f1e2640866d4c29dd61ae6, type: 3}
      propertyPath: m_LocalEulerAnglesHint.y
      value: 0
      objectReference: {fileID: 0}
    - target: {fileID: 6620577713449678173, guid: 027423c9f7f1e2640866d4c29dd61ae6, type: 3}
      propertyPath: m_LocalEulerAnglesHint.z
      value: 0
      objectReference: {fileID: 0}
    - target: {fileID: 7027749352572866013, guid: 027423c9f7f1e2640866d4c29dd61ae6, type: 3}
      propertyPath: m_SortingLayer
      value: 0
      objectReference: {fileID: 0}
    - target: {fileID: 7157350735403092368, guid: 027423c9f7f1e2640866d4c29dd61ae6, type: 3}
      propertyPath: m_SortingLayer
      value: 0
      objectReference: {fileID: 0}
    - target: {fileID: 7157350735403092368, guid: 027423c9f7f1e2640866d4c29dd61ae6, type: 3}
      propertyPath: m_Materials.Array.data[0]
      value: 
      objectReference: {fileID: 2100000, guid: a3109f8c83c83c241a387caa8f404bb3, type: 2}
    - target: {fileID: 8107029095999897284, guid: 027423c9f7f1e2640866d4c29dd61ae6, type: 3}
      propertyPath: m_SortingLayer
      value: 0
      objectReference: {fileID: 0}
    - target: {fileID: 8952290658055318635, guid: 027423c9f7f1e2640866d4c29dd61ae6, type: 3}
      propertyPath: m_SortingLayer
      value: 0
      objectReference: {fileID: 0}
    - target: {fileID: 9050314390468853224, guid: 027423c9f7f1e2640866d4c29dd61ae6, type: 3}
      propertyPath: m_SortingLayer
      value: 0
      objectReference: {fileID: 0}
    - target: {fileID: 9050314390468853224, guid: 027423c9f7f1e2640866d4c29dd61ae6, type: 3}
      propertyPath: m_Materials.Array.data[0]
      value: 
      objectReference: {fileID: 2100000, guid: d8d5779626d7ba64dbd2e0129543b5f6, type: 2}
    - target: {fileID: 9050314390468853224, guid: 027423c9f7f1e2640866d4c29dd61ae6, type: 3}
      propertyPath: m_Materials.Array.data[1]
      value: 
      objectReference: {fileID: 2100000, guid: b24123366b2605846976a3a01979a9cb, type: 2}
    m_RemovedComponents: []
    m_RemovedGameObjects: []
    m_AddedGameObjects: []
    m_AddedComponents: []
  m_SourcePrefab: {fileID: 100100000, guid: 027423c9f7f1e2640866d4c29dd61ae6, type: 3}
