%YAML 1.1
%TAG !u! tag:unity3d.com,2011:
--- !u!1001 &68009365865707272
PrefabInstance:
  m_ObjectHideFlags: 0
  serializedVersion: 2
  m_Modification:
    serializedVersion: 3
    m_TransformParent: {fileID: 0}
    m_Modifications:
    - target: {fileID: 85856663591110444, guid: 027423c9f7f1e2640866d4c29dd61ae6, type: 3}
      propertyPath: m_Name
      value: UICard_Shot_Base
      objectReference: {fileID: 0}
    - target: {fileID: 1368693283624992048, guid: 027423c9f7f1e2640866d4c29dd61ae6, type: 3}
      propertyPath: m_text
      value: 'Shoots one magic projectile


        Nothing wrong with the classics'
      objectReference: {fileID: 0}
    - target: {fileID: 2482922164078295009, guid: 027423c9f7f1e2640866d4c29dd61ae6, type: 3}
      propertyPath: m_AnchorMax.y
      value: 0
      objectReference: {fileID: 0}
    - target: {fileID: 2482922164078295009, guid: 027423c9f7f1e2640866d4c29dd61ae6, type: 3}
      propertyPath: m_AnchorMin.y
      value: 0
      objectReference: {fileID: 0}
    - target: {fileID: 2482922164078295009, guid: 027423c9f7f1e2640866d4c29dd61ae6, type: 3}
      propertyPath: m_SizeDelta.x
      value: 0
      objectReference: {fileID: 0}
    - target: {fileID: 2482922164078295009, guid: 027423c9f7f1e2640866d4c29dd61ae6, type: 3}
      propertyPath: m_AnchoredPosition.x
      value: 0
      objectReference: {fileID: 0}
    - target: {fileID: 2482922164078295009, guid: 027423c9f7f1e2640866d4c29dd61ae6, type: 3}
      propertyPath: m_AnchoredPosition.y
      value: 0
      objectReference: {fileID: 0}
    - target: {fileID: 3520580044352466341, guid: 027423c9f7f1e2640866d4c29dd61ae6, type: 3}
      propertyPath: spell
      value: 
      objectReference: {fileID: 11400000, guid: 6ddd6d63810307340a3c28c434603468, type: 2}
    - target: {fileID: 4579885266350885081, guid: 027423c9f7f1e2640866d4c29dd61ae6, type: 3}
      propertyPath: m_text
      value: Magic Missile
      objectReference: {fileID: 0}
    - target: {fileID: 5216228814852213072, guid: 027423c9f7f1e2640866d4c29dd61ae6, type: 3}
      propertyPath: m_AnchorMax.y
      value: 0
      objectReference: {fileID: 0}
    - target: {fileID: 5216228814852213072, guid: 027423c9f7f1e2640866d4c29dd61ae6, type: 3}
      propertyPath: m_AnchorMin.y
      value: 0
      objectReference: {fileID: 0}
    - target: {fileID: 5216228814852213072, guid: 027423c9f7f1e2640866d4c29dd61ae6, type: 3}
      propertyPath: m_SizeDelta.x
      value: 0
      objectReference: {fileID: 0}
    - target: {fileID: 5216228814852213072, guid: 027423c9f7f1e2640866d4c29dd61ae6, type: 3}
      propertyPath: m_AnchoredPosition.x
      value: 0
      objectReference: {fileID: 0}
    - target: {fileID: 5216228814852213072, guid: 027423c9f7f1e2640866d4c29dd61ae6, type: 3}
      propertyPath: m_AnchoredPosition.y
      value: 0
      objectReference: {fileID: 0}
    - target: {fileID: 6018923206443607541, guid: 027423c9f7f1e2640866d4c29dd61ae6, type: 3}
      propertyPath: m_Color.b
      value: 1
      objectReference: {fileID: 0}
    - target: {fileID: 6018923206443607541, guid: 027423c9f7f1e2640866d4c29dd61ae6, type: 3}
      propertyPath: m_Color.g
      value: 1
      objectReference: {fileID: 0}
    - target: {fileID: 6018923206443607541, guid: 027423c9f7f1e2640866d4c29dd61ae6, type: 3}
      propertyPath: m_Color.r
      value: 1
      objectReference: {fileID: 0}
    - target: {fileID: 6620577713449678173, guid: 027423c9f7f1e2640866d4c29dd61ae6, type: 3}
      propertyPath: m_Pivot.x
      value: 0.5
      objectReference: {fileID: 0}
    - target: {fileID: 6620577713449678173, guid: 027423c9f7f1e2640866d4c29dd61ae6, type: 3}
      propertyPath: m_Pivot.y
      value: 1
      objectReference: {fileID: 0}
    - target: {fileID: 6620577713449678173, guid: 027423c9f7f1e2640866d4c29dd61ae6, type: 3}
      propertyPath: m_RootOrder
      value: -1
      objectReference: {fileID: 0}
    - target: {fileID: 6620577713449678173, guid: 027423c9f7f1e2640866d4c29dd61ae6, type: 3}
      propertyPath: m_AnchorMax.x
      value: 0.5
      objectReference: {fileID: 0}
    - target: {fileID: 6620577713449678173, guid: 027423c9f7f1e2640866d4c29dd61ae6, type: 3}
      propertyPath: m_AnchorMax.y
      value: 1
      objectReference: {fileID: 0}
    - target: {fileID: 6620577713449678173, guid: 027423c9f7f1e2640866d4c29dd61ae6, type: 3}
      propertyPath: m_AnchorMin.x
      value: 0.5
      objectReference: {fileID: 0}
    - target: {fileID: 6620577713449678173, guid: 027423c9f7f1e2640866d4c29dd61ae6, type: 3}
      propertyPath: m_AnchorMin.y
      value: 1
      objectReference: {fileID: 0}
    - target: {fileID: 6620577713449678173, guid: 027423c9f7f1e2640866d4c29dd61ae6, type: 3}
      propertyPath: m_SizeDelta.x
      value: 190
      objectReference: {fileID: 0}
    - target: {fileID: 6620577713449678173, guid: 027423c9f7f1e2640866d4c29dd61ae6, type: 3}
      propertyPath: m_SizeDelta.y
      value: 373
      objectReference: {fileID: 0}
    - target: {fileID: 6620577713449678173, guid: 027423c9f7f1e2640866d4c29dd61ae6, type: 3}
      propertyPath: m_LocalPosition.x
      value: 0
      objectReference: {fileID: 0}
    - target: {fileID: 6620577713449678173, guid: 027423c9f7f1e2640866d4c29dd61ae6, type: 3}
      propertyPath: m_LocalPosition.y
      value: 0
      objectReference: {fileID: 0}
    - target: {fileID: 6620577713449678173, guid: 027423c9f7f1e2640866d4c29dd61ae6, type: 3}
      propertyPath: m_LocalPosition.z
      value: 0
      objectReference: {fileID: 0}
    - target: {fileID: 6620577713449678173, guid: 027423c9f7f1e2640866d4c29dd61ae6, type: 3}
      propertyPath: m_LocalRotation.w
      value: 1
      objectReference: {fileID: 0}
    - target: {fileID: 6620577713449678173, guid: 027423c9f7f1e2640866d4c29dd61ae6, type: 3}
      propertyPath: m_LocalRotation.x
      value: -0
      objectReference: {fileID: 0}
    - target: {fileID: 6620577713449678173, guid: 027423c9f7f1e2640866d4c29dd61ae6, type: 3}
      propertyPath: m_LocalRotation.y
      value: -0
      objectReference: {fileID: 0}
    - target: {fileID: 6620577713449678173, guid: 027423c9f7f1e2640866d4c29dd61ae6, type: 3}
      propertyPath: m_LocalRotation.z
      value: -0
      objectReference: {fileID: 0}
    - target: {fileID: 6620577713449678173, guid: 027423c9f7f1e2640866d4c29dd61ae6, type: 3}
      propertyPath: m_AnchoredPosition.x
      value: 0
      objectReference: {fileID: 0}
    - target: {fileID: 6620577713449678173, guid: 027423c9f7f1e2640866d4c29dd61ae6, type: 3}
      propertyPath: m_AnchoredPosition.y
      value: 0
      objectReference: {fileID: 0}
    - target: {fileID: 6620577713449678173, guid: 027423c9f7f1e2640866d4c29dd61ae6, type: 3}
      propertyPath: m_LocalEulerAnglesHint.x
      value: 0
      objectReference: {fileID: 0}
    - target: {fileID: 6620577713449678173, guid: 027423c9f7f1e2640866d4c29dd61ae6, type: 3}
      propertyPath: m_LocalEulerAnglesHint.y
      value: 0
      objectReference: {fileID: 0}
    - target: {fileID: 6620577713449678173, guid: 027423c9f7f1e2640866d4c29dd61ae6, type: 3}
      propertyPath: m_LocalEulerAnglesHint.z
      value: 0
      objectReference: {fileID: 0}
    m_RemovedComponents: []
    m_RemovedGameObjects: []
    m_AddedGameObjects: []
    m_AddedComponents: []
  m_SourcePrefab: {fileID: 100100000, guid: 027423c9f7f1e2640866d4c29dd61ae6, type: 3}
