%YAML 1.1
%TAG !u! tag:unity3d.com,2011:
--- !u!1001 &3937997095514259101
PrefabInstance:
  m_ObjectHideFlags: 0
  serializedVersion: 2
  m_Modification:
    serializedVersion: 3
    m_TransformParent: {fileID: 0}
    m_Modifications:
    - target: {fileID: 5065029976600363215, guid: f57b13d45e2bed443a3f3a6f58d80468, type: 3}
      propertyPath: m_RootOrder
      value: 0
      objectReference: {fileID: 0}
    - target: {fileID: 5065029976600363215, guid: f57b13d45e2bed443a3f3a6f58d80468, type: 3}
      propertyPath: m_LocalPosition.x
      value: -3.09
      objectReference: {fileID: 0}
    - target: {fileID: 5065029976600363215, guid: f57b13d45e2bed443a3f3a6f58d80468, type: 3}
      propertyPath: m_LocalPosition.y
      value: 0
      objectReference: {fileID: 0}
    - target: {fileID: 5065029976600363215, guid: f57b13d45e2bed443a3f3a6f58d80468, type: 3}
      propertyPath: m_LocalPosition.z
      value: -7.077812
      objectReference: {fileID: 0}
    - target: {fileID: 5065029976600363215, guid: f57b13d45e2bed443a3f3a6f58d80468, type: 3}
      propertyPath: m_LocalRotation.w
      value: 0.7071067
      objectReference: {fileID: 0}
    - target: {fileID: 5065029976600363215, guid: f57b13d45e2bed443a3f3a6f58d80468, type: 3}
      propertyPath: m_LocalRotation.x
      value: -0.7071068
      objectReference: {fileID: 0}
    - target: {fileID: 5065029976600363215, guid: f57b13d45e2bed443a3f3a6f58d80468, type: 3}
      propertyPath: m_LocalRotation.y
      value: 0
      objectReference: {fileID: 0}
    - target: {fileID: 5065029976600363215, guid: f57b13d45e2bed443a3f3a6f58d80468, type: 3}
      propertyPath: m_LocalRotation.z
      value: -0
      objectReference: {fileID: 0}
    - target: {fileID: 5065029976600363215, guid: f57b13d45e2bed443a3f3a6f58d80468, type: 3}
      propertyPath: m_LocalEulerAnglesHint.x
      value: 0
      objectReference: {fileID: 0}
    - target: {fileID: 5065029976600363215, guid: f57b13d45e2bed443a3f3a6f58d80468, type: 3}
      propertyPath: m_LocalEulerAnglesHint.y
      value: 0
      objectReference: {fileID: 0}
    - target: {fileID: 5065029976600363215, guid: f57b13d45e2bed443a3f3a6f58d80468, type: 3}
      propertyPath: m_LocalEulerAnglesHint.z
      value: 0
      objectReference: {fileID: 0}
    - target: {fileID: 5548796759574583925, guid: f57b13d45e2bed443a3f3a6f58d80468, type: 3}
      propertyPath: m_Name
      value: prefab_Evergreen_003_col
      objectReference: {fileID: 0}
    m_RemovedComponents: []
    m_RemovedGameObjects: []
    m_AddedGameObjects: []
    m_AddedComponents:
    - targetCorrespondingSourceObject: {fileID: 5548796759574583925, guid: f57b13d45e2bed443a3f3a6f58d80468, type: 3}
      insertIndex: -1
      addedObject: {fileID: 1713442260739190532}
  m_SourcePrefab: {fileID: 100100000, guid: f57b13d45e2bed443a3f3a6f58d80468, type: 3}
--- !u!1 &8910330354006336744 stripped
GameObject:
  m_CorrespondingSourceObject: {fileID: 5548796759574583925, guid: f57b13d45e2bed443a3f3a6f58d80468, type: 3}
  m_PrefabInstance: {fileID: 3937997095514259101}
  m_PrefabAsset: {fileID: 0}
--- !u!136 &1713442260739190532
CapsuleCollider:
  m_ObjectHideFlags: 0
  m_CorrespondingSourceObject: {fileID: 0}
  m_PrefabInstance: {fileID: 0}
  m_PrefabAsset: {fileID: 0}
  m_GameObject: {fileID: 8910330354006336744}
  m_Material: {fileID: 0}
  m_IncludeLayers:
    serializedVersion: 2
    m_Bits: 0
  m_ExcludeLayers:
    serializedVersion: 2
    m_Bits: 0
  m_LayerOverridePriority: 0
  m_IsTrigger: 0
  m_ProvidesContacts: 0
  m_Enabled: 1
  serializedVersion: 2
  m_Radius: 0.008
  m_Height: 0.04
  m_Direction: 2
  m_Center: {x: -0.0000000018626451, y: -9.313224e-10, z: 0.01}
